{
    "resourceType": "Patient",
    "id": "42",
    "identifier": [
        {
            "system": "http://vogon.space/earthlings",
            "value":"2"
        }
    ],
    "name":[
        {
            "given": "Arthur",
            "family": "Dent"
        }
    ]
}
